{
  "required": true,
  "minVersion": "0.8",
  "package": "dev.vriska.timesave.mixin",
  "compatibilityLevel": "JAVA_21",
  "mixins": [
    "SwordItemMixin"
  ],
  "client": [
    "DeathScreenMixin"
  ],
  "injectors": {
    "defaultRequire": 1
  }
}
